<?xml version="1.0" encoding="utf-8"?>
<!-- Generator: Adobe Illustrator 19.0.0, SVG Export Plug-In . SVG Version: 6.00 Build 0)  -->
<svg version="1.1" id="avatar" xmlns="http://www.w3.org/2000/svg" xmlns:xlink="http://www.w3.org/1999/xlink" x="0px" y="0px"
	 viewBox="206 -116 1024 1024" style="enable-background:new 206 -116 1024 1024;" xml:space="preserve">
<style type="text/css">
	.st0{fill:#D5D5D5;}
	.st1{fill:#FFFFFF;}
</style>
<path class="st0" d="M718-107.9c-278.9,0-505,225.6-505,503.9c0,278.3,226.1,503.9,505,503.9c278.9,0,505-225.6,505-503.9
	C1223,117.7,996.9-107.9,718-107.9z"/>
<path class="st1" d="M723.1,861.1c-171.6,0-293.4-104.9-295.2-106.6c27.8-16.2,141.8-38.3,168.4-55c29.5-18.6,20-120.1,20-120.1
	l-20-17.5c0,0-4-46.5-13.8-62.5c-16.7-27.5-40.1-100-40.1-100s-20-14.6-20-40c0-25.5,20-40,20-40s-15.7-70.8-15.7-120.1
	c0-111.9,85.3-160.1,202.2-160.1c116.9,0,181.9,56.7,181.9,160.1c0,49.2-7.5,120.1-7.5,120.1s20,14.6,20,40c0,25.5-20,40-20,40
	s-20.6,62.7-40.1,100c-8.7,16.6-13.8,62.5-13.8,62.5l-20,17.5c0,0-9.5,101.5,20,120.1c26.3,16.5,137.7,38.3,167.3,54.4
	C1016.8,755.8,894.6,861.1,723.1,861.1z"/>
</svg>
